<?xml version="1.0" encoding="utf-8"?>
<!-- Generator: Adobe Illustrator 24.0.1, SVG Export Plug-In . SVG Version: 6.00 Build 0)  -->
<svg version="1.1" id="Capa_1" xmlns="http://www.w3.org/2000/svg" xmlns:xlink="http://www.w3.org/1999/xlink" x="0px" y="0px"
	 viewBox="0 0 182 60" style="enable-background:new 0 0 182 60;" xml:space="preserve">
<style type="text/css">
	.st0{opacity:0.8;}
	.st1{fill:#2C3E50;}
	.st2{opacity:0.6;}
	.st3{opacity:0.5;}
	.st4{opacity:0.7;}
</style>
<g>
	<g>
		<g id="XMLID_143_" class="st0">
			<polygon class="st1" points="36,2.2 2.6,18.9 2.6,18.9 2.6,18.9 2.6,35.6 36,18.9 36,18.9 36,18.9 			"/>
		</g>
		<g id="XMLID_138_" class="st2">
			<polygon class="st1" points="19.3,32.8 19.3,32.8 19.3,32.8 19.3,32.8 19.3,32.8 2.6,41.1 36,57.8 36,41.1 			"/>
		</g>
		<g id="XMLID_134_" class="st3">
			<polygon class="st1" points="69.5,24.4 36,41.1 36,41.1 36,41.1 36,57.8 69.5,41.1 69.4,41.1 69.5,41.1 			"/>
		</g>
		<g id="XMLID_131_" class="st4">
			<polygon class="st1" points="52.7,27.2 69.5,18.9 36,2.2 36,18.9 36,18.9 52.7,27.2 52.7,27.2 52.7,27.2 52.7,27.2 			"/>
		</g>
	</g>
	<g>
		<g>
			<path class="st1" d="M77.5,37.8h21c1.1,0,2-0.9,2-2v-2c0-1.1-0.9-2-2-2H82.1c-3,0-5.4-2.4-5.4-5.4v-2c0-3,2.4-5.4,5.4-5.4h21v3.3
				h-21c-1.1,0-2,0.9-2,2.1v2c0,1.1,0.9,2,2,2h16.4c3,0,5.4,2.4,5.4,5.4v2c0,3-2.4,5.4-5.4,5.4h-21V37.8z"/>
			<path class="st1" d="M107.6,18.9h3.4v22.3h-3.4V18.9z"/>
			<path class="st1" d="M114.7,35.8V24.3c0-3,2.4-5.4,5.4-5.4h21v3.3h-21c-1.1,0-2,0.9-2,2.1v11.5c0,1.1,0.9,2,2,2h21v3.4h-21
				C117.1,41.2,114.7,38.8,114.7,35.8z"/>
			<path class="st1" d="M144.4,35.8V24.3c0-3,2.4-5.4,5.4-5.4h16.4c3,0,5.4,2.4,5.4,5.4v11.5c0,3-2.4,5.4-5.4,5.4h-16.4
				C146.8,41.2,144.4,38.8,144.4,35.8z M147.8,24.3v11.5c0,1.1,0.9,2,2,2h16.4c1.1,0,2-0.9,2-2V24.3c0-1.1-0.9-2.1-2-2.1h-16.4
				C148.7,22.2,147.8,23.2,147.8,24.3z"/>
		</g>
		<g>
			<g>
				<path class="st1" d="M176.2,22.2v1.1h-0.5v-2.9h0.8c0.4,0,0.6,0.1,0.8,0.2c0.2,0.1,0.3,0.3,0.3,0.6c0,0.4-0.2,0.6-0.6,0.8
					l0.8,1.3h-0.5l-0.7-1.1H176.2z M176.2,21.8h0.3c0.2,0,0.4,0,0.5-0.1c0.1-0.1,0.1-0.2,0.1-0.4c0-0.2-0.1-0.3-0.2-0.3
					c-0.1-0.1-0.3-0.1-0.5-0.1h-0.3V21.8z"/>
			</g>
			<path class="st1" d="M176.6,19.6c1.3,0,2.3,1,2.3,2.3c0,1.3-1,2.3-2.3,2.3c-1.3,0-2.3-1-2.3-2.3
				C174.2,20.6,175.3,19.6,176.6,19.6 M176.6,19.1c-1.5,0-2.8,1.2-2.8,2.8s1.2,2.8,2.8,2.8c1.5,0,2.8-1.2,2.8-2.8
				S178.1,19.1,176.6,19.1L176.6,19.1z"/>
		</g>
	</g>
</g>
</svg>
